<svg width="971" height="403" viewBox="0 0 971 403" fill="none" xmlns="http://www.w3.org/2000/svg">
<path d="M359.627 292.497L283.588 313.657L359.691 181.856L435.794 313.657L359.627 292.497ZM137 393.26H582.317L359.691 8.24609L137 393.26Z" fill="#0E57A4" fill-opacity="0.05"/>
</svg>
