<svg width="28" height="18" viewBox="0 0 28 18" fill="none" xmlns="http://www.w3.org/2000/svg">
<path d="M2 7.9C1.39249 7.9 0.9 8.39249 0.9 9C0.9 9.60751 1.39249 10.1 2 10.1V7.9ZM26.7778 9.77782C27.2074 9.34824 27.2074 8.65176 26.7778 8.22218L19.7775 1.22183C19.3479 0.792249 18.6514 0.792249 18.2218 1.22183C17.7922 1.6514 17.7922 2.34788 18.2218 2.77746L24.4444 9L18.2218 15.2225C17.7922 15.6521 17.7922 16.3486 18.2218 16.7782C18.6514 17.2078 19.3479 17.2078 19.7775 16.7782L26.7778 9.77782ZM2 10.1L26 10.1V7.9L2 7.9V10.1Z" fill="#003399"/>
</svg>
