<svg width="104" height="104" viewBox="0 0 104 104" fill="none" xmlns="http://www.w3.org/2000/svg">
<g clip-path="url(#clip0_323_28903)">
<path d="M39.8206 38.5938L52 32.8246L64.1794 38.5938H78.4142L59.475 29.6225C61.7433 27.5765 63.1719 24.6163 63.1719 21.3281C63.1719 16.2238 59.7311 11.908 55.0469 10.5785V6.09375H58.0938C59.7764 6.09375 61.1406 4.72956 61.1406 3.04688C61.1406 1.36419 59.7764 0 58.0938 0H45.9062C44.2236 0 42.8594 1.36419 42.8594 3.04688C42.8594 4.72956 44.2236 6.09375 45.9062 6.09375H48.9531V13.2031C48.9531 14.8858 50.3173 16.25 52 16.25C54.8001 16.25 57.0781 18.528 57.0781 21.3281C57.0781 24.1282 54.8001 26.4062 52 26.4062C49.1999 26.4062 46.9219 24.1282 46.9219 21.3281C46.9219 19.6454 45.5577 18.2812 43.875 18.2812C42.1923 18.2812 40.8281 19.6454 40.8281 21.3281C40.8281 24.6163 42.2567 27.5765 44.5248 29.6225L25.5858 38.5938H39.8206ZM102.605 60.4508C103.033 60.1747 103.385 59.7957 103.629 59.3484C103.872 58.9012 104 58.4 104 57.8906V47.7344C104 46.0517 102.636 44.6875 100.953 44.6875H3.04688C1.36419 44.6875 0 46.0517 0 47.7344V57.8906C1.31469e-05 58.4 0.127712 58.9012 0.371421 59.3484C0.615129 59.7957 0.96707 60.1747 1.39506 60.4508L6.29688 63.6133V85.074L1.39506 88.2367C0.96707 88.5128 0.615129 88.8918 0.371421 89.3391C0.127712 89.7863 1.31469e-05 90.2875 0 90.7969L0 100.953C0 102.636 1.36419 104 3.04688 104H100.953C102.636 104 104 102.636 104 100.953V90.7969C104 90.2875 103.872 89.7863 103.629 89.3391C103.385 88.8918 103.033 88.5128 102.605 88.2367L97.7031 85.0742V63.6133L102.605 60.4508ZM20.2254 88.7656C20.2254 90.4483 18.8612 91.8125 17.1785 91.8125C15.4958 91.8125 14.1316 90.4483 14.1316 88.7656V59.9219C14.1316 58.2392 15.4958 56.875 17.1785 56.875C18.8612 56.875 20.2254 58.2392 20.2254 59.9219V88.7656ZM34.154 88.7656C34.154 90.4483 32.7899 91.8125 31.1072 91.8125C29.4245 91.8125 28.0603 90.4483 28.0603 88.7656V59.9219C28.0603 58.2392 29.4245 56.875 31.1072 56.875C32.7899 56.875 34.154 58.2392 34.154 59.9219V88.7656ZM48.0825 88.7656C48.0825 90.4483 46.7183 91.8125 45.0357 91.8125C43.353 91.8125 41.9888 90.4483 41.9888 88.7656V59.9219C41.9888 58.2392 43.353 56.875 45.0357 56.875C46.7183 56.875 48.0825 58.2392 48.0825 59.9219V88.7656ZM62.0112 88.7656C62.0112 90.4483 60.647 91.8125 58.9643 91.8125C57.2817 91.8125 55.9175 90.4483 55.9175 88.7656V59.9219C55.9175 58.2392 57.2817 56.875 58.9643 56.875C60.647 56.875 62.0112 58.2392 62.0112 59.9219V88.7656ZM75.9397 88.7656C75.9397 90.4483 74.5755 91.8125 72.8928 91.8125C71.2101 91.8125 69.846 90.4483 69.846 88.7656V59.9219C69.846 58.2392 71.2101 56.875 72.8928 56.875C74.5755 56.875 75.9397 58.2392 75.9397 59.9219V88.7656ZM89.8684 88.7656C89.8684 90.4483 88.5042 91.8125 86.8215 91.8125C85.1388 91.8125 83.7746 90.4483 83.7746 88.7656V59.9219C83.7746 58.2392 85.1388 56.875 86.8215 56.875C88.5042 56.875 89.8684 58.2392 89.8684 59.9219V88.7656Z" fill="#313C53"/>
</g>
<defs>
<clipPath id="clip0_323_28903">
<rect width="104" height="104" fill="white"/>
</clipPath>
</defs>
</svg>
