<svg width="86" height="86" viewBox="0 0 86 86" fill="none" xmlns="http://www.w3.org/2000/svg">
<g clip-path="url(#clip0_47_13451)" filter="url(#filter0_d_47_13451)">
<path d="M43 59.4141C48.0482 59.4141 52.1406 55.3217 52.1406 50.2734C52.1406 45.2252 48.0482 41.1328 43 41.1328C37.9518 41.1328 33.8594 45.2252 33.8594 50.2734C33.8594 55.3217 37.9518 59.4141 43 59.4141Z" fill="#313C53"/>
<path d="M65.8516 59.4141C70.8998 59.4141 74.9922 55.3217 74.9922 50.2734C74.9922 45.2252 70.8998 41.1328 65.8516 41.1328C60.8033 41.1328 56.7109 45.2252 56.7109 50.2734C56.7109 55.3217 60.8033 59.4141 65.8516 59.4141Z" fill="#313C53"/>
<path d="M20.1484 59.4141C25.1967 59.4141 29.2891 55.3217 29.2891 50.2734C29.2891 45.2252 25.1967 41.1328 20.1484 41.1328C15.1002 41.1328 11.0078 45.2252 11.0078 50.2734C11.0078 55.3217 15.1002 59.4141 20.1484 59.4141Z" fill="#313C53"/>
<path d="M52.1406 59.4141H45.2852V73.125H40.7148V59.4141H33.8594C30.0791 59.4141 27.0039 62.4893 27.0039 66.2695V78H58.9961V66.2695C58.9961 62.4893 55.9209 59.4141 52.1406 59.4141ZM63.5664 20.5664C63.5664 9.22548 54.3409 0 43 0C31.6591 0 22.4336 9.22548 22.4336 20.5664C22.4336 31.9073 31.6591 41.1328 43 41.1328C54.3409 41.1328 63.5664 31.9073 63.5664 20.5664ZM40.7148 28.3681L32.9132 20.5664L36.1445 17.335L40.7148 21.9054L49.8555 12.7647L53.0868 15.9961L40.7148 28.3681ZM4 66.2695V78H22.4336V66.2695C22.4336 63.6876 23.3268 61.3296 24.7765 59.4141H10.8555C7.07521 59.4141 4 62.4893 4 66.2695ZM75.1445 59.4141H61.2235C62.6732 61.3296 63.5664 63.6876 63.5664 66.2695V78H82V66.2695C82 62.4893 78.9248 59.4141 75.1445 59.4141Z" fill="#313C53"/>
</g>
<defs>
<filter id="filter0_d_47_13451" x="0" y="0" width="86" height="86" filterUnits="userSpaceOnUse" color-interpolation-filters="sRGB">
<feFlood flood-opacity="0" result="BackgroundImageFix"/>
<feColorMatrix in="SourceAlpha" type="matrix" values="0 0 0 0 0 0 0 0 0 0 0 0 0 0 0 0 0 0 127 0" result="hardAlpha"/>
<feOffset dy="4"/>
<feGaussianBlur stdDeviation="2"/>
<feComposite in2="hardAlpha" operator="out"/>
<feColorMatrix type="matrix" values="0 0 0 0 0 0 0 0 0 0 0 0 0 0 0 0 0 0 0.25 0"/>
<feBlend mode="normal" in2="BackgroundImageFix" result="effect1_dropShadow_47_13451"/>
<feBlend mode="normal" in="SourceGraphic" in2="effect1_dropShadow_47_13451" result="shape"/>
</filter>
<clipPath id="clip0_47_13451">
<rect width="78" height="78" fill="white" transform="translate(4)"/>
</clipPath>
</defs>
</svg>
