<svg width="30" height="26" viewBox="0 0 30 26" fill="none" xmlns="http://www.w3.org/2000/svg">
<path d="M14.8781 19.1955L9.79642 20.6244L14.8824 11.7239L19.9683 20.6244L14.8781 19.1955ZM0 26H29.7605L14.8824 0L0 26Z" fill="#003399"/>
</svg>
