<svg width="87" height="87" viewBox="0 0 87 87" fill="none" xmlns="http://www.w3.org/2000/svg">
<path d="M52.9652 13.5923H34.0347C29.7737 19.1074 23.6069 21.7361 18.6056 22.9876V40.4153C18.6056 48.6648 22.22 56.3287 29.3486 63.1944C32.6524 66.3772 38.3898 70.6291 43.5024 72.7654C48.6095 70.631 54.3461 66.3785 57.6513 63.1945C64.7832 56.3304 68.399 48.6665 68.399 40.4153V22.9879C63.3958 21.737 57.2273 19.1086 52.9652 13.5923Z" fill="#313C53"/>
<path d="M78.6031 11.9754C76.1165 11.9754 63.5803 11.5338 60.9863 2.81679L60.5525 1.35938H26.4521L26.0183 2.81679C23.4242 11.5338 10.8843 11.9754 8.39686 11.9754H6.3578V40.4151C6.3578 54.9906 14.2395 65.6388 20.8513 72.0049C28.3814 79.2553 37.3893 84.007 42.9761 85.4997L43.5027 85.6404L44.0293 85.4996C49.6146 84.0063 58.6205 79.2546 66.1496 72.0047C72.7612 65.6383 80.6425 54.9898 80.6425 40.4149V11.9754H78.6031ZM72.4771 40.4151C72.4771 45.3017 71.347 50.0712 69.1181 54.5913C67.1086 58.6664 64.2024 62.5491 60.4798 66.1317C56.6039 69.8658 50.0755 74.6334 44.23 76.8659L43.5025 77.1437L42.7751 76.8659C36.9235 74.631 30.3946 69.8641 26.5197 66.131C22.7994 62.5481 19.8946 58.6654 17.886 54.591C15.6575 50.0705 14.5276 45.3012 14.5276 40.4149V19.696L16.1579 19.3624C20.8999 18.3922 27.3814 16.0473 31.3307 10.3865L31.9394 9.5141H55.0605L55.6691 10.3865C59.619 16.0481 66.1028 18.3925 70.8464 19.3624L72.4769 19.6958V40.4151H72.4771Z" fill="#313C53"/>
</svg>
