<svg width="240" height="66" viewBox="0 0 240 66" fill="none" xmlns="http://www.w3.org/2000/svg">
<path d="M235 65L235 0L221.4 -5.94475e-07L221.4 65L235 65Z" fill="#CAD5EA"/>
<path d="M230.2 12.0004L230.2 3.80039C230.2 3.30039 230.6 2.90039 231.1 2.90039C231.6 2.90039 232 3.30039 232 3.80039L232 12.0004C232 12.5004 231.6 12.9004 231.1 12.9004C230.6 12.9004 230.2 12.5004 230.2 12.0004Z" fill="white"/>
<path d="M231.1 4.40078C230.9 4.40078 230.8 4.30078 230.8 4.10078C230.8 3.90078 230.9 3.80078 231.1 3.80078C231.3 3.80078 231.4 3.90078 231.4 4.10078C231.4 4.30078 231.3 4.40078 231.1 4.40078Z" fill="#CAD5EA"/>
<path d="M230.8 11.6008C230.8 11.7665 230.934 11.9008 231.1 11.9008C231.266 11.9008 231.4 11.7665 231.4 11.6008C231.4 11.4351 231.266 11.3008 231.1 11.3008C230.934 11.3008 230.8 11.4351 230.8 11.6008Z" fill="#CAD5EA"/>
<path d="M223.8 12.0004L223.8 3.80039C223.8 3.30039 224.2 2.90039 224.7 2.90039C225.2 2.90039 225.6 3.30039 225.6 3.80039L225.6 12.0004C225.6 12.5004 225.2 12.9004 224.7 12.9004C224.2 12.9004 223.8 12.5004 223.8 12.0004Z" fill="white"/>
<path d="M224.7 4.40078C224.5 4.40078 224.4 4.30078 224.4 4.10078C224.4 3.90078 224.5 3.80078 224.7 3.80078C224.9 3.80078 225 3.90078 225 4.10078C225 4.30078 224.8 4.40078 224.7 4.40078Z" fill="#CAD5EA"/>
<path d="M224.7 11.8012C224.5 11.8012 224.4 11.7012 224.4 11.5012C224.4 11.3012 224.5 11.2012 224.7 11.2012C224.9 11.2012 225 11.3012 225 11.5012C225 11.7012 224.8 11.8012 224.7 11.8012Z" fill="#CAD5EA"/>
<path d="M230.2 61.9008L230.2 53.7008C230.2 53.2008 230.6 52.8008 231.1 52.8008C231.6 52.8008 232 53.2008 232 53.7008L232 61.9008C232 62.4008 231.6 62.8008 231.1 62.8008C230.6 62.8008 230.2 62.4008 230.2 61.9008Z" fill="white"/>
<path d="M231.1 54.4008C230.9 54.4008 230.8 54.3008 230.8 54.1008C230.8 53.9008 230.9 53.8008 231.1 53.8008C231.3 53.8008 231.4 53.9008 231.4 54.1008C231.4 54.3008 231.3 54.4008 231.1 54.4008Z" fill="#CAD5EA"/>
<path d="M230.8 61.5012C230.8 61.6669 230.934 61.8012 231.1 61.8012C231.266 61.8012 231.4 61.6669 231.4 61.5012C231.4 61.3355 231.266 61.2012 231.1 61.2012C230.934 61.2012 230.8 61.3355 230.8 61.5012Z" fill="#CAD5EA"/>
<path d="M223.8 61.9008L223.8 53.7008C223.8 53.2008 224.2 52.8008 224.7 52.8008C225.2 52.8008 225.6 53.2008 225.6 53.7008L225.6 61.9008C225.6 62.4008 225.2 62.8008 224.7 62.8008C224.2 62.8008 223.8 62.4008 223.8 61.9008Z" fill="white"/>
<path d="M224.7 54.4008C224.5 54.4008 224.4 54.3008 224.4 54.1008C224.4 53.9008 224.5 53.8008 224.7 53.8008C224.9 53.8008 225 53.9008 225 54.1008C225 54.3008 224.8 54.4008 224.7 54.4008Z" fill="#CAD5EA"/>
<path d="M224.7 61.8012C224.5 61.8012 224.4 61.7012 224.4 61.5012C224.4 61.3012 224.5 61.2012 224.7 61.2012C224.9 61.2012 225 61.3012 225 61.5012C225 61.7012 224.8 61.8012 224.7 61.8012Z" fill="#CAD5EA"/>
<path d="M211 65L211 0L197.4 -5.94475e-07L197.4 65L211 65Z" fill="#CAD5EA"/>
<path d="M206.2 12.0004L206.2 3.80039C206.2 3.30039 206.6 2.90039 207.1 2.90039C207.6 2.90039 208 3.30039 208 3.80039L208 12.0004C208 12.5004 207.6 12.9004 207.1 12.9004C206.6 12.9004 206.2 12.5004 206.2 12.0004Z" fill="white"/>
<path d="M207.1 4.40078C206.9 4.40078 206.8 4.30078 206.8 4.10078C206.8 3.90078 206.9 3.80078 207.1 3.80078C207.3 3.80078 207.4 3.90078 207.4 4.10078C207.4 4.30078 207.3 4.40078 207.1 4.40078Z" fill="#CAD5EA"/>
<path d="M206.8 11.6008C206.8 11.7665 206.934 11.9008 207.1 11.9008C207.266 11.9008 207.4 11.7665 207.4 11.6008C207.4 11.4351 207.266 11.3008 207.1 11.3008C206.934 11.3008 206.8 11.4351 206.8 11.6008Z" fill="#CAD5EA"/>
<path d="M199.8 12.0004L199.8 3.80039C199.8 3.30039 200.2 2.90039 200.7 2.90039C201.2 2.90039 201.6 3.30039 201.6 3.80039L201.6 12.0004C201.6 12.5004 201.2 12.9004 200.7 12.9004C200.2 12.9004 199.8 12.5004 199.8 12.0004Z" fill="white"/>
<path d="M200.7 4.40078C200.5 4.40078 200.4 4.30078 200.4 4.10078C200.4 3.90078 200.5 3.80078 200.7 3.80078C200.9 3.80078 201 3.90078 201 4.10078C201 4.30078 200.8 4.40078 200.7 4.40078Z" fill="#CAD5EA"/>
<path d="M200.7 11.8012C200.5 11.8012 200.4 11.7012 200.4 11.5012C200.4 11.3012 200.5 11.2012 200.7 11.2012C200.9 11.2012 201 11.3012 201 11.5012C201 11.7012 200.8 11.8012 200.7 11.8012Z" fill="#CAD5EA"/>
<path d="M206.2 61.9008L206.2 53.7008C206.2 53.2008 206.6 52.8008 207.1 52.8008C207.6 52.8008 208 53.2008 208 53.7008L208 61.9008C208 62.4008 207.6 62.8008 207.1 62.8008C206.6 62.8008 206.2 62.4008 206.2 61.9008Z" fill="white"/>
<path d="M207.1 54.4008C206.9 54.4008 206.8 54.3008 206.8 54.1008C206.8 53.9008 206.9 53.8008 207.1 53.8008C207.3 53.8008 207.4 53.9008 207.4 54.1008C207.4 54.3008 207.3 54.4008 207.1 54.4008Z" fill="#CAD5EA"/>
<path d="M206.8 61.5012C206.8 61.6669 206.934 61.8012 207.1 61.8012C207.266 61.8012 207.4 61.6669 207.4 61.5012C207.4 61.3355 207.266 61.2012 207.1 61.2012C206.934 61.2012 206.8 61.3355 206.8 61.5012Z" fill="#CAD5EA"/>
<path d="M199.8 61.9008L199.8 53.7008C199.8 53.2008 200.2 52.8008 200.7 52.8008C201.2 52.8008 201.6 53.2008 201.6 53.7008L201.6 61.9008C201.6 62.4008 201.2 62.8008 200.7 62.8008C200.2 62.8008 199.8 62.4008 199.8 61.9008Z" fill="white"/>
<path d="M200.7 54.4008C200.5 54.4008 200.4 54.3008 200.4 54.1008C200.4 53.9008 200.5 53.8008 200.7 53.8008C200.9 53.8008 201 53.9008 201 54.1008C201 54.3008 200.8 54.4008 200.7 54.4008Z" fill="#CAD5EA"/>
<path d="M200.7 61.8012C200.5 61.8012 200.4 61.7012 200.4 61.5012C200.4 61.3012 200.5 61.2012 200.7 61.2012C200.9 61.2012 201 61.3012 201 61.5012C201 61.7012 200.8 61.8012 200.7 61.8012Z" fill="#CAD5EA"/>
<path d="M187 65L187 0L173.4 -5.94475e-07L173.4 65L187 65Z" fill="#CAD5EA"/>
<path d="M182.2 12.0004L182.2 3.80039C182.2 3.30039 182.6 2.90039 183.1 2.90039C183.6 2.90039 184 3.30039 184 3.80039L184 12.0004C184 12.5004 183.6 12.9004 183.1 12.9004C182.6 12.9004 182.2 12.5004 182.2 12.0004Z" fill="white"/>
<path d="M183.1 4.40078C182.9 4.40078 182.8 4.30078 182.8 4.10078C182.8 3.90078 182.9 3.80078 183.1 3.80078C183.3 3.80078 183.4 3.90078 183.4 4.10078C183.4 4.30078 183.3 4.40078 183.1 4.40078Z" fill="#CAD5EA"/>
<path d="M183.1 11.8012C182.9 11.8012 182.8 11.7012 182.8 11.5012C182.8 11.3012 182.9 11.2012 183.1 11.2012C183.3 11.2012 183.4 11.3012 183.4 11.5012C183.4 11.7012 183.3 11.8012 183.1 11.8012Z" fill="#CAD5EA"/>
<path d="M175.8 12.0004L175.8 3.80039C175.8 3.30039 176.2 2.90039 176.7 2.90039C177.2 2.90039 177.6 3.30039 177.6 3.80039L177.6 12.0004C177.6 12.5004 177.2 12.9004 176.7 12.9004C176.2 12.9004 175.8 12.5004 175.8 12.0004Z" fill="white"/>
<path d="M176.7 4.40078C176.5 4.40078 176.4 4.30078 176.4 4.10078C176.4 3.90078 176.5 3.80078 176.7 3.80078C176.9 3.80078 177 3.90078 177 4.10078C177 4.30078 176.8 4.40078 176.7 4.40078Z" fill="#CAD5EA"/>
<path d="M176.4 11.6008C176.4 11.7665 176.534 11.9008 176.7 11.9008C176.866 11.9008 177 11.7665 177 11.6008C177 11.4351 176.866 11.3008 176.7 11.3008C176.534 11.3008 176.4 11.4351 176.4 11.6008Z" fill="#CAD5EA"/>
<path d="M182.2 61.9008L182.2 53.7008C182.2 53.2008 182.6 52.8008 183.1 52.8008C183.6 52.8008 184 53.2008 184 53.7008L184 61.9008C184 62.4008 183.6 62.8008 183.1 62.8008C182.6 62.8008 182.2 62.4008 182.2 61.9008Z" fill="white"/>
<path d="M183.1 54.4008C182.9 54.4008 182.8 54.3008 182.8 54.1008C182.8 53.9008 182.9 53.8008 183.1 53.8008C183.3 53.8008 183.4 53.9008 183.4 54.1008C183.4 54.3008 183.3 54.4008 183.1 54.4008Z" fill="#CAD5EA"/>
<path d="M183.1 61.8012C182.9 61.8012 182.8 61.7012 182.8 61.5012C182.8 61.3012 182.9 61.2012 183.1 61.2012C183.3 61.2012 183.4 61.3012 183.4 61.5012C183.4 61.7012 183.3 61.8012 183.1 61.8012Z" fill="#CAD5EA"/>
<path d="M175.8 61.9008L175.8 53.7008C175.8 53.2008 176.2 52.8008 176.7 52.8008C177.2 52.8008 177.6 53.2008 177.6 53.7008L177.6 61.9008C177.6 62.4008 177.2 62.8008 176.7 62.8008C176.2 62.8008 175.8 62.4008 175.8 61.9008Z" fill="white"/>
<path d="M176.7 54.4008C176.5 54.4008 176.4 54.3008 176.4 54.1008C176.4 53.9008 176.5 53.8008 176.7 53.8008C176.9 53.8008 177 53.9008 177 54.1008C177 54.3008 176.8 54.4008 176.7 54.4008Z" fill="#CAD5EA"/>
<path d="M176.4 61.5012C176.4 61.6669 176.534 61.8012 176.7 61.8012C176.866 61.8012 177 61.6669 177 61.5012C177 61.3355 176.866 61.2012 176.7 61.2012C176.534 61.2012 176.4 61.3355 176.4 61.5012Z" fill="#CAD5EA"/>
<path d="M163 65L163 0L149.4 -5.94475e-07L149.4 65L163 65Z" fill="#CAD5EA"/>
<path d="M158.2 12.0004L158.2 3.80039C158.2 3.30039 158.6 2.90039 159.1 2.90039C159.6 2.90039 160 3.30039 160 3.80039L160 12.0004C160 12.5004 159.6 12.9004 159.1 12.9004C158.7 12.9004 158.2 12.5004 158.2 12.0004Z" fill="white"/>
<path d="M159.2 4.40078C159 4.40078 158.9 4.30078 158.9 4.10078C158.9 3.90078 159 3.80078 159.2 3.80078C159.4 3.80078 159.5 3.90078 159.5 4.10078C159.4 4.30078 159.3 4.40078 159.2 4.40078Z" fill="#CAD5EA"/>
<path d="M159.2 11.8012C159 11.8012 158.9 11.7012 158.9 11.5012C158.9 11.3012 159 11.2012 159.2 11.2012C159.4 11.2012 159.5 11.3012 159.5 11.5012C159.4 11.7012 159.3 11.8012 159.2 11.8012Z" fill="#CAD5EA"/>
<path d="M151.8 12.0004L151.8 3.80039C151.8 3.30039 152.2 2.90039 152.7 2.90039C153.2 2.90039 153.6 3.30039 153.6 3.80039L153.6 12.0004C153.6 12.5004 153.2 12.9004 152.7 12.9004C152.2 12.9004 151.8 12.5004 151.8 12.0004Z" fill="white"/>
<path d="M152.7 4.40078C152.5 4.40078 152.4 4.30078 152.4 4.10078C152.4 3.90078 152.5 3.80078 152.7 3.80078C152.9 3.80078 153 3.90078 153 4.10078C153 4.30078 152.9 4.40078 152.7 4.40078Z" fill="#CAD5EA"/>
<path d="M152.4 11.6008C152.4 11.7665 152.534 11.9008 152.7 11.9008C152.866 11.9008 153 11.7665 153 11.6008C153 11.4351 152.866 11.3008 152.7 11.3008C152.534 11.3008 152.4 11.4351 152.4 11.6008Z" fill="#CAD5EA"/>
<path d="M158.2 61.9008L158.2 53.7008C158.2 53.2008 158.6 52.8008 159.1 52.8008C159.6 52.8008 160 53.2008 160 53.7008L160 61.9008C160 62.4008 159.6 62.8008 159.1 62.8008C158.7 62.8008 158.2 62.4008 158.2 61.9008Z" fill="white"/>
<path d="M159.2 54.4008C159 54.4008 158.9 54.3008 158.9 54.1008C158.9 53.9008 159 53.8008 159.2 53.8008C159.4 53.8008 159.5 53.9008 159.5 54.1008C159.4 54.3008 159.3 54.4008 159.2 54.4008Z" fill="#CAD5EA"/>
<path d="M159.2 61.8012C159 61.8012 158.9 61.7012 158.9 61.5012C158.9 61.3012 159 61.2012 159.2 61.2012C159.4 61.2012 159.5 61.3012 159.5 61.5012C159.5 61.7012 159.3 61.8012 159.2 61.8012Z" fill="#CAD5EA"/>
<path d="M151.8 61.9008L151.8 53.7008C151.8 53.2008 152.2 52.8008 152.7 52.8008C153.2 52.8008 153.6 53.2008 153.6 53.7008L153.6 61.9008C153.6 62.4008 153.2 62.8008 152.7 62.8008C152.2 62.8008 151.8 62.4008 151.8 61.9008Z" fill="white"/>
<path d="M152.7 54.4008C152.5 54.4008 152.4 54.3008 152.4 54.1008C152.4 53.9008 152.5 53.8008 152.7 53.8008C152.9 53.8008 153 53.9008 153 54.1008C153 54.3008 152.9 54.4008 152.7 54.4008Z" fill="#CAD5EA"/>
<path d="M152.4 61.5012C152.4 61.6669 152.534 61.8012 152.7 61.8012C152.866 61.8012 153 61.6669 153 61.5012C153 61.3355 152.866 61.2012 152.7 61.2012C152.534 61.2012 152.4 61.3355 152.4 61.5012Z" fill="#CAD5EA"/>
<path d="M139 65L139 0L125.4 -5.94475e-07L125.4 65L139 65Z" fill="#CAD5EA"/>
<path d="M134.3 12.0004L134.3 3.80039C134.3 3.30039 134.7 2.90039 135.2 2.90039C135.7 2.90039 136.1 3.30039 136.1 3.80039L136.1 12.0004C136.1 12.5004 135.7 12.9004 135.2 12.9004C134.7 12.9004 134.3 12.5004 134.3 12.0004Z" fill="white"/>
<path d="M135.2 4.40078C135 4.40078 134.9 4.30078 134.9 4.10078C134.9 3.90078 135 3.80078 135.2 3.80078C135.4 3.80078 135.5 3.90078 135.5 4.10078C135.5 4.30078 135.3 4.40078 135.2 4.40078Z" fill="#CAD5EA"/>
<path d="M135.2 11.8012C135 11.8012 134.9 11.7012 134.9 11.5012C134.9 11.3012 135 11.2012 135.2 11.2012C135.4 11.2012 135.5 11.3012 135.5 11.5012C135.5 11.7012 135.3 11.8012 135.2 11.8012Z" fill="#CAD5EA"/>
<path d="M127.8 12.0004L127.8 3.80039C127.8 3.30039 128.2 2.90039 128.7 2.90039C129.2 2.90039 129.6 3.30039 129.6 3.80039L129.6 12.0004C129.6 12.5004 129.2 12.9004 128.7 12.9004C128.2 12.9004 127.8 12.5004 127.8 12.0004Z" fill="white"/>
<path d="M128.7 4.40078C128.5 4.40078 128.4 4.30078 128.4 4.10078C128.4 3.90078 128.5 3.80078 128.7 3.80078C128.9 3.80078 129 3.90078 129 4.10078C129 4.30078 128.9 4.40078 128.7 4.40078Z" fill="#CAD5EA"/>
<path d="M128.7 11.8012C128.5 11.8012 128.4 11.7012 128.4 11.5012C128.4 11.3012 128.5 11.2012 128.7 11.2012C128.9 11.2012 129 11.3012 129 11.5012C129 11.7012 128.9 11.8012 128.7 11.8012Z" fill="#CAD5EA"/>
<path d="M134.3 61.9008L134.3 53.7008C134.3 53.2008 134.7 52.8008 135.2 52.8008C135.7 52.8008 136.1 53.2008 136.1 53.7008L136.1 61.9008C136.1 62.4008 135.7 62.8008 135.2 62.8008C134.7 62.8008 134.3 62.4008 134.3 61.9008Z" fill="white"/>
<path d="M135.2 54.4008C135 54.4008 134.9 54.3008 134.9 54.1008C134.9 53.9008 135 53.8008 135.2 53.8008C135.4 53.8008 135.5 53.9008 135.5 54.1008C135.5 54.3008 135.3 54.4008 135.2 54.4008Z" fill="#CAD5EA"/>
<path d="M135.2 61.8012C135 61.8012 134.9 61.7012 134.9 61.5012C134.9 61.3012 135 61.2012 135.2 61.2012C135.4 61.2012 135.5 61.3012 135.5 61.5012C135.5 61.7012 135.3 61.8012 135.2 61.8012Z" fill="#CAD5EA"/>
<path d="M127.8 61.9008L127.8 53.7008C127.8 53.2008 128.2 52.8008 128.7 52.8008C129.2 52.8008 129.6 53.2008 129.6 53.7008L129.6 61.9008C129.6 62.4008 129.2 62.8008 128.7 62.8008C128.2 62.8008 127.8 62.4008 127.8 61.9008Z" fill="white"/>
<path d="M128.7 54.4008C128.5 54.4008 128.4 54.3008 128.4 54.1008C128.4 53.9008 128.5 53.8008 128.7 53.8008C128.9 53.8008 129 53.9008 129 54.1008C129 54.3008 128.9 54.4008 128.7 54.4008Z" fill="#CAD5EA"/>
<path d="M128.7 61.8012C128.5 61.8012 128.4 61.7012 128.4 61.5012C128.4 61.3012 128.5 61.2012 128.7 61.2012C128.9 61.2012 129 61.3012 129 61.5012C129 61.7012 128.9 61.8012 128.7 61.8012Z" fill="#CAD5EA"/>
<path d="M115 65L115 0L101.4 -5.94475e-07L101.4 65L115 65Z" fill="#CAD5EA"/>
<path d="M110.3 12.0004L110.3 3.80039C110.3 3.30039 110.7 2.90039 111.2 2.90039C111.7 2.90039 112.1 3.30039 112.1 3.80039L112.1 12.0004C112.1 12.5004 111.7 12.9004 111.2 12.9004C110.7 12.9004 110.3 12.5004 110.3 12.0004Z" fill="white"/>
<path d="M111.2 4.40078C111 4.40078 110.9 4.30078 110.9 4.10078C110.9 3.90078 111 3.80078 111.2 3.80078C111.4 3.80078 111.5 3.90078 111.5 4.10078C111.5 4.30078 111.3 4.40078 111.2 4.40078Z" fill="#CAD5EA"/>
<path d="M111.2 11.8012C111 11.8012 110.9 11.7012 110.9 11.5012C110.9 11.3012 111 11.2012 111.2 11.2012C111.4 11.2012 111.5 11.3012 111.5 11.5012C111.5 11.7012 111.3 11.8012 111.2 11.8012Z" fill="#CAD5EA"/>
<path d="M103.8 12.0004L103.8 3.80039C103.8 3.30039 104.2 2.90039 104.7 2.90039C105.2 2.90039 105.6 3.30039 105.6 3.80039L105.6 12.0004C105.6 12.5004 105.2 12.9004 104.7 12.9004C104.2 12.9004 103.8 12.5004 103.8 12.0004Z" fill="white"/>
<path d="M104.7 4.40078C104.5 4.40078 104.4 4.30078 104.4 4.10078C104.4 3.90078 104.5 3.80078 104.7 3.80078C104.9 3.80078 105 3.90078 105 4.10078C105 4.30078 104.9 4.40078 104.7 4.40078Z" fill="#CAD5EA"/>
<path d="M104.7 11.8012C104.5 11.8012 104.4 11.7012 104.4 11.5012C104.4 11.3012 104.5 11.2012 104.7 11.2012C104.9 11.2012 105 11.3012 105 11.5012C105 11.7012 104.9 11.8012 104.7 11.8012Z" fill="#CAD5EA"/>
<path d="M110.3 61.9008L110.3 53.7008C110.3 53.2008 110.7 52.8008 111.2 52.8008C111.7 52.8008 112.1 53.2008 112.1 53.7008L112.1 61.9008C112.1 62.4008 111.7 62.8008 111.2 62.8008C110.7 62.8008 110.3 62.4008 110.3 61.9008Z" fill="white"/>
<path d="M111.2 54.4008C111 54.4008 110.9 54.3008 110.9 54.1008C110.9 53.9008 111 53.8008 111.2 53.8008C111.4 53.8008 111.5 53.9008 111.5 54.1008C111.5 54.3008 111.3 54.4008 111.2 54.4008Z" fill="#CAD5EA"/>
<path d="M111.2 61.8012C111 61.8012 110.9 61.7012 110.9 61.5012C110.9 61.3012 111 61.2012 111.2 61.2012C111.4 61.2012 111.5 61.3012 111.5 61.5012C111.5 61.7012 111.3 61.8012 111.2 61.8012Z" fill="#CAD5EA"/>
<path d="M103.8 61.9008L103.8 53.7008C103.8 53.2008 104.2 52.8008 104.7 52.8008C105.2 52.8008 105.6 53.2008 105.6 53.7008L105.6 61.9008C105.6 62.4008 105.2 62.8008 104.7 62.8008C104.2 62.8008 103.8 62.4008 103.8 61.9008Z" fill="white"/>
<path d="M104.7 54.4008C104.5 54.4008 104.4 54.3008 104.4 54.1008C104.4 53.9008 104.5 53.8008 104.7 53.8008C104.9 53.8008 105 53.9008 105 54.1008C105 54.3008 104.9 54.4008 104.7 54.4008Z" fill="#CAD5EA"/>
<path d="M104.7 61.8012C104.5 61.8012 104.4 61.7012 104.4 61.5012C104.4 61.3012 104.5 61.2012 104.7 61.2012C104.9 61.2012 105 61.3012 105 61.5012C105 61.7012 104.9 61.8012 104.7 61.8012Z" fill="#CAD5EA"/>
<path d="M91.1001 65L91.1001 0L77.5001 -5.94474e-07L77.5001 65L91.1001 65Z" fill="#CAD5EA"/>
<path d="M86.3001 12.0004L86.3001 3.80039C86.3001 3.30039 86.7001 2.90039 87.2001 2.90039C87.7001 2.90039 88.1001 3.30039 88.1001 3.80039L88.1001 12.0004C88.1001 12.5004 87.7001 12.9004 87.2001 12.9004C86.7001 12.9004 86.3001 12.5004 86.3001 12.0004Z" fill="white"/>
<path d="M87.2 4.40078C87 4.40078 86.9 4.30078 86.9 4.10078C86.9 3.90078 87 3.80078 87.2 3.80078C87.4 3.80078 87.5 3.90078 87.5 4.10078C87.5 4.30078 87.4 4.40078 87.2 4.40078Z" fill="#CAD5EA"/>
<path d="M87.2 11.8012C87 11.8012 86.9 11.7012 86.9 11.5012C86.9 11.3012 87 11.2012 87.2 11.2012C87.4 11.2012 87.5 11.3012 87.5 11.5012C87.5 11.7012 87.4 11.8012 87.2 11.8012Z" fill="#CAD5EA"/>
<path d="M79.8001 12.0004L79.8001 3.80039C79.8001 3.30039 80.2001 2.90039 80.7001 2.90039C81.2001 2.90039 81.6001 3.30039 81.6001 3.80039L81.6001 12.0004C81.6001 12.5004 81.2001 12.9004 80.7001 12.9004C80.2001 12.9004 79.8001 12.5004 79.8001 12.0004Z" fill="white"/>
<path d="M80.7 4.40078C80.5 4.40078 80.4 4.30078 80.4 4.10078C80.4 3.90078 80.5 3.80078 80.7 3.80078C80.9 3.80078 81 3.90078 81 4.10078C81 4.30078 80.9 4.40078 80.7 4.40078Z" fill="#CAD5EA"/>
<path d="M80.7 11.8012C80.5 11.8012 80.4 11.7012 80.4 11.5012C80.4 11.3012 80.5 11.2012 80.7 11.2012C80.9 11.2012 81 11.3012 81 11.5012C81 11.7012 80.9 11.8012 80.7 11.8012Z" fill="#CAD5EA"/>
<path d="M86.3001 61.9008L86.3001 53.7008C86.3001 53.2008 86.7001 52.8008 87.2001 52.8008C87.7001 52.8008 88.1001 53.2008 88.1001 53.7008L88.1001 61.9008C88.1001 62.4008 87.7001 62.8008 87.2001 62.8008C86.7001 62.8008 86.3001 62.4008 86.3001 61.9008Z" fill="white"/>
<path d="M87.2 54.4008C87 54.4008 86.9 54.3008 86.9 54.1008C86.9 53.9008 87 53.8008 87.2 53.8008C87.4 53.8008 87.5 53.9008 87.5 54.1008C87.5 54.3008 87.4 54.4008 87.2 54.4008Z" fill="#CAD5EA"/>
<path d="M87.2 61.8012C87 61.8012 86.9 61.7012 86.9 61.5012C86.9 61.3012 87 61.2012 87.2 61.2012C87.4 61.2012 87.5 61.3012 87.5 61.5012C87.5 61.7012 87.4 61.8012 87.2 61.8012Z" fill="#CAD5EA"/>
<path d="M79.8001 61.9008L79.8001 53.7008C79.8001 53.2008 80.2001 52.8008 80.7001 52.8008C81.2001 52.8008 81.6001 53.2008 81.6001 53.7008L81.6001 61.9008C81.6001 62.4008 81.2001 62.8008 80.7001 62.8008C80.2001 62.8008 79.8001 62.4008 79.8001 61.9008Z" fill="white"/>
<path d="M80.7 54.4008C80.5 54.4008 80.4 54.3008 80.4 54.1008C80.4 53.9008 80.5 53.8008 80.7 53.8008C80.9 53.8008 81 53.9008 81 54.1008C81 54.3008 80.9 54.4008 80.7 54.4008Z" fill="#CAD5EA"/>
<path d="M80.7 61.8012C80.5 61.8012 80.4 61.7012 80.4 61.5012C80.4 61.3012 80.5 61.2012 80.7 61.2012C80.9 61.2012 81 61.3012 81 61.5012C81 61.7012 80.9 61.8012 80.7 61.8012Z" fill="#CAD5EA"/>
<path d="M67.1001 65L67.1001 0L53.5001 -5.94474e-07L53.5001 65L67.1001 65Z" fill="#CAD5EA"/>
<path d="M62.3001 12.0004L62.3001 3.80039C62.3001 3.30039 62.7001 2.90039 63.2001 2.90039C63.7001 2.90039 64.1001 3.30039 64.1001 3.80039L64.1001 12.0004C64.1001 12.5004 63.7001 12.9004 63.2001 12.9004C62.7001 12.9004 62.3001 12.5004 62.3001 12.0004Z" fill="white"/>
<path d="M63.2 4.40078C63 4.40078 62.9 4.30078 62.9 4.10078C62.9 3.90078 63 3.80078 63.2 3.80078C63.4 3.80078 63.5 3.90078 63.5 4.10078C63.5 4.30078 63.4 4.40078 63.2 4.40078Z" fill="#CAD5EA"/>
<path d="M63.2 11.8012C63 11.8012 62.9 11.7012 62.9 11.5012C62.9 11.3012 63 11.2012 63.2 11.2012C63.4 11.2012 63.5 11.3012 63.5 11.5012C63.5 11.7012 63.4 11.8012 63.2 11.8012Z" fill="#CAD5EA"/>
<path d="M55.8001 12.0004L55.8001 3.80039C55.8001 3.30039 56.2001 2.90039 56.7001 2.90039C57.2001 2.90039 57.6001 3.30039 57.6001 3.80039L57.6001 12.0004C57.6001 12.5004 57.2001 12.9004 56.7001 12.9004C56.2001 12.9004 55.8001 12.5004 55.8001 12.0004Z" fill="white"/>
<path d="M56.7 4.40078C56.5 4.40078 56.4 4.30078 56.4 4.10078C56.4 3.90078 56.5 3.80078 56.7 3.80078C56.9 3.80078 57 3.90078 57 4.10078C57 4.30078 56.9 4.40078 56.7 4.40078Z" fill="#CAD5EA"/>
<path d="M56.4 11.6008C56.4 11.7665 56.5343 11.9008 56.7 11.9008C56.8657 11.9008 57 11.7665 57 11.6008C57 11.4351 56.8657 11.3008 56.7 11.3008C56.5343 11.3008 56.4 11.4351 56.4 11.6008Z" fill="#CAD5EA"/>
<path d="M62.3001 61.9008L62.3001 53.7008C62.3001 53.2008 62.7001 52.8008 63.2001 52.8008C63.7001 52.8008 64.1001 53.2008 64.1001 53.7008L64.1001 61.9008C64.1001 62.4008 63.7001 62.8008 63.2001 62.8008C62.7001 62.8008 62.3001 62.4008 62.3001 61.9008Z" fill="white"/>
<path d="M63.2 54.4008C63 54.4008 62.9 54.3008 62.9 54.1008C62.9 53.9008 63 53.8008 63.2 53.8008C63.4 53.8008 63.5 53.9008 63.5 54.1008C63.5 54.3008 63.4 54.4008 63.2 54.4008Z" fill="#CAD5EA"/>
<path d="M63.2 61.8012C63 61.8012 62.9 61.7012 62.9 61.5012C62.9 61.3012 63 61.2012 63.2 61.2012C63.4 61.2012 63.5 61.3012 63.5 61.5012C63.5 61.7012 63.4 61.8012 63.2 61.8012Z" fill="#CAD5EA"/>
<path d="M55.8001 61.9008L55.8001 53.7008C55.8001 53.2008 56.2001 52.8008 56.7001 52.8008C57.2001 52.8008 57.6001 53.2008 57.6001 53.7008L57.6001 61.9008C57.6001 62.4008 57.2001 62.8008 56.7001 62.8008C56.2001 62.8008 55.8001 62.4008 55.8001 61.9008Z" fill="white"/>
<path d="M56.7 54.4008C56.5 54.4008 56.4 54.3008 56.4 54.1008C56.4 53.9008 56.5 53.8008 56.7 53.8008C56.9 53.8008 57 53.9008 57 54.1008C57 54.3008 56.9 54.4008 56.7 54.4008Z" fill="#CAD5EA"/>
<path d="M56.4 61.5012C56.4 61.6669 56.5343 61.8012 56.7 61.8012C56.8657 61.8012 57 61.6669 57 61.5012C57 61.3355 56.8657 61.2012 56.7 61.2012C56.5343 61.2012 56.4 61.3355 56.4 61.5012Z" fill="#CAD5EA"/>
<path d="M43.1001 65L43.1001 0L29.5001 -5.94475e-07L29.5001 65L43.1001 65Z" fill="#CAD5EA"/>
<path d="M38.3001 12.0004L38.3001 3.80039C38.3001 3.30039 38.7001 2.90039 39.2001 2.90039C39.7001 2.90039 40.1001 3.30039 40.1001 3.80039L40.1001 12.0004C40.1001 12.5004 39.7001 12.9004 39.2001 12.9004C38.7001 12.9004 38.3001 12.5004 38.3001 12.0004Z" fill="white"/>
<path d="M39.2 4.40078C39 4.40078 38.9 4.30078 38.9 4.10078C38.9 3.90078 39 3.80078 39.2 3.80078C39.4 3.80078 39.5 3.90078 39.5 4.10078C39.5 4.30078 39.4 4.40078 39.2 4.40078Z" fill="#CAD5EA"/>
<path d="M39.2 11.8012C39 11.8012 38.9 11.7012 38.9 11.5012C38.9 11.3012 39 11.2012 39.2 11.2012C39.4 11.2012 39.5 11.3012 39.5 11.5012C39.5 11.7012 39.4 11.8012 39.2 11.8012Z" fill="#CAD5EA"/>
<path d="M31.8001 12.0004L31.8001 3.80039C31.8001 3.30039 32.2001 2.90039 32.7001 2.90039C33.2001 2.90039 33.6001 3.30039 33.6001 3.80039L33.6001 12.0004C33.6001 12.5004 33.2001 12.9004 32.7001 12.9004C32.3001 12.9004 31.8001 12.5004 31.8001 12.0004Z" fill="white"/>
<path d="M32.8001 4.40078C32.6001 4.40078 32.5001 4.30078 32.5001 4.10078C32.5001 3.90078 32.6001 3.80078 32.8001 3.80078C33.0001 3.80078 33.1001 3.90078 33.1001 4.10078C33.0001 4.30078 32.9001 4.40078 32.8001 4.40078Z" fill="#CAD5EA"/>
<path d="M32.5001 11.6008C32.5001 11.7665 32.6344 11.9008 32.8001 11.9008C32.9658 11.9008 33.1001 11.7665 33.1001 11.6008C33.1001 11.4351 32.9658 11.3008 32.8001 11.3008C32.6344 11.3008 32.5001 11.4351 32.5001 11.6008Z" fill="#CAD5EA"/>
<path d="M38.3001 61.9008L38.3001 53.7008C38.3001 53.2008 38.7001 52.8008 39.2001 52.8008C39.7001 52.8008 40.1001 53.2008 40.1001 53.7008L40.1001 61.9008C40.1001 62.4008 39.7001 62.8008 39.2001 62.8008C38.7001 62.8008 38.3001 62.4008 38.3001 61.9008Z" fill="white"/>
<path d="M39.2 54.4008C39 54.4008 38.9 54.3008 38.9 54.1008C38.9 53.9008 39 53.8008 39.2 53.8008C39.4 53.8008 39.5 53.9008 39.5 54.1008C39.5 54.3008 39.4 54.4008 39.2 54.4008Z" fill="#CAD5EA"/>
<path d="M39.2 61.8012C39 61.8012 38.9 61.7012 38.9 61.5012C38.9 61.3012 39 61.2012 39.2 61.2012C39.4 61.2012 39.5 61.3012 39.5 61.5012C39.5 61.7012 39.4 61.8012 39.2 61.8012Z" fill="#CAD5EA"/>
<path d="M31.8001 61.9008L31.8001 53.7008C31.8001 53.2008 32.2001 52.8008 32.7001 52.8008C33.2001 52.8008 33.6001 53.2008 33.6001 53.7008L33.6001 61.9008C33.6001 62.4008 33.2001 62.8008 32.7001 62.8008C32.3001 62.8008 31.8001 62.4008 31.8001 61.9008Z" fill="white"/>
<path d="M32.8001 54.4008C32.6001 54.4008 32.5001 54.3008 32.5001 54.1008C32.5001 53.9008 32.6001 53.8008 32.8001 53.8008C33.0001 53.8008 33.1001 53.9008 33.1001 54.1008C33.0001 54.3008 32.9001 54.4008 32.8001 54.4008Z" fill="#CAD5EA"/>
<path d="M32.5001 61.5012C32.5001 61.6669 32.6344 61.8012 32.8001 61.8012C32.9658 61.8012 33.1001 61.6669 33.1001 61.5012C33.1001 61.3355 32.9658 61.2012 32.8001 61.2012C32.6344 61.2012 32.5001 61.3355 32.5001 61.5012Z" fill="#CAD5EA"/>
<path d="M19.1001 65L19.1001 0L5.50009 -5.94475e-07L5.50009 65L19.1001 65Z" fill="#CAD5EA"/>
<path d="M14.3001 12.0004L14.3001 3.80039C14.3001 3.30039 14.7001 2.90039 15.2001 2.90039C15.7001 2.90039 16.1001 3.30039 16.1001 3.80039L16.1001 12.0004C16.1001 12.5004 15.7001 12.9004 15.2001 12.9004C14.7001 12.9004 14.3001 12.5004 14.3001 12.0004Z" fill="white"/>
<path d="M15.2 4.40078C15 4.40078 14.9 4.30078 14.9 4.10078C14.9 3.90078 15 3.80078 15.2 3.80078C15.4 3.80078 15.5 3.90078 15.5 4.10078C15.5 4.30078 15.4 4.40078 15.2 4.40078Z" fill="#CAD5EA"/>
<path d="M14.9 11.6008C14.9 11.7665 15.0343 11.9008 15.2 11.9008C15.3657 11.9008 15.5 11.7665 15.5 11.6008C15.5 11.4351 15.3657 11.3008 15.2 11.3008C15.0343 11.3008 14.9 11.4351 14.9 11.6008Z" fill="#CAD5EA"/>
<path d="M7.90021 12.0004L7.90021 3.80039C7.90021 3.30039 8.3002 2.90039 8.8002 2.90039C9.3002 2.90039 9.7002 3.30039 9.7002 3.80039L9.70019 12.0004C9.70019 12.5004 9.3002 12.9004 8.8002 12.9004C8.3002 12.9004 7.90021 12.5004 7.90021 12.0004Z" fill="white"/>
<path d="M8.80011 4.40078C8.60011 4.40078 8.50009 4.30078 8.50009 4.10078C8.50009 3.90078 8.60011 3.80078 8.80011 3.80078C9.00011 3.80078 9.1001 3.90078 9.1001 4.10078C9.1001 4.30078 8.90011 4.40078 8.80011 4.40078Z" fill="#CAD5EA"/>
<path d="M8.80011 11.8012C8.60011 11.8012 8.50009 11.7012 8.50009 11.5012C8.50009 11.3012 8.60011 11.2012 8.80011 11.2012C9.00011 11.2012 9.1001 11.3012 9.1001 11.5012C9.1001 11.7012 8.90011 11.8012 8.80011 11.8012Z" fill="#CAD5EA"/>
<path d="M14.3001 61.9008L14.3001 53.7008C14.3001 53.2008 14.7001 52.8008 15.2001 52.8008C15.7001 52.8008 16.1001 53.2008 16.1001 53.7008L16.1001 61.9008C16.1001 62.4008 15.7001 62.8008 15.2001 62.8008C14.7001 62.8008 14.3001 62.4008 14.3001 61.9008Z" fill="white"/>
<path d="M15.2 54.4008C15 54.4008 14.9 54.3008 14.9 54.1008C14.9 53.9008 15 53.8008 15.2 53.8008C15.4 53.8008 15.5 53.9008 15.5 54.1008C15.5 54.3008 15.4 54.4008 15.2 54.4008Z" fill="#CAD5EA"/>
<path d="M14.9 61.5012C14.9 61.6669 15.0343 61.8012 15.2 61.8012C15.3657 61.8012 15.5 61.6669 15.5 61.5012C15.5 61.3355 15.3657 61.2012 15.2 61.2012C15.0343 61.2012 14.9 61.3355 14.9 61.5012Z" fill="#CAD5EA"/>
<path d="M7.90021 61.9008L7.90021 53.7008C7.90021 53.2008 8.3002 52.8008 8.8002 52.8008C9.3002 52.8008 9.7002 53.2008 9.7002 53.7008L9.70019 61.9008C9.70019 62.4008 9.3002 62.8008 8.8002 62.8008C8.3002 62.8008 7.90021 62.4008 7.90021 61.9008Z" fill="white"/>
<path d="M8.80011 54.4008C8.60011 54.4008 8.50009 54.3008 8.50009 54.1008C8.50009 53.9008 8.60011 53.8008 8.80011 53.8008C9.00011 53.8008 9.1001 53.9008 9.1001 54.1008C9.1001 54.3008 8.90011 54.4008 8.80011 54.4008Z" fill="#CAD5EA"/>
<path d="M8.80011 61.8012C8.60011 61.8012 8.50009 61.7012 8.50009 61.5012C8.50009 61.3012 8.60011 61.2012 8.80011 61.2012C9.00011 61.2012 9.1001 61.3012 9.1001 61.5012C9.1001 61.7012 8.90011 61.8012 8.80011 61.8012Z" fill="#CAD5EA"/>
<path d="M239.9 9.19961L239.9 6.59961L1.52588e-05 6.5996L1.51451e-05 9.1996L239.9 9.19961Z" fill="#313C53"/>
<path d="M239.9 59.1L239.9 56.5L1.52588e-05 56.5L1.51451e-05 59.1L239.9 59.1Z" fill="#313C53"/>
</svg>
